[
    { "lang": "orm",
      "view_id": "ipa",
      "ip": "127.0.0.1",
      "port": "5117"},
      
    { "lang": "tir",
      "view_id": "ipa",
      "ip": "127.0.0.1",
      "port": "5116" },     

    { "lang": "orm",
      "view_id": "natural",
      "ip": "127.0.0.1",
      "port": "3237"},
      
    { "lang": "tir",
      "view_id": "natural",
      "ip": "127.0.0.1",
      "port": "5551" }

]