[

    {
        "name" : "Domain",
        "name_abbrev" : "domain",
        "exclusive": true,
        "color": "red",
        "labels": [
            { "label" : "In-domain", "label_abbrev": "IN", "color": "orange" },
            { "label" : "Out-of-domain", "label_abbrev": "OUT", "color": "red" }
        ] 
    },
    

    {
        "name" : "Named Entities",
        "name_abbrev" : "ner",
        "negative_label": "Not a named entity",
        "exclusive": true,
        "color": "green",
        "labels": [
            { "label" : "Person", "label_abbrev": "PER", "color": "orange", "hotkey": "p" },
            { "label" : "Organization", "label_abbrev": "ORG", "color": "purple", "hotkey": "o" },
            { "label" : "Geopolitical Entity", "label_abbrev": "GPE", "color": "green", "hotkey": "g" },
            { "label" : "Location", "label_abbrev": "LOC", "color":"blue", "hotkey": "l" },
            { "label" : "Unknown", "label_abbrev": "UNK", "color":"red", "hotkey": "u" },
            { "label" : "Not An Entity", "label_abbrev": "NAE", "color":"silver", "hotkey": "n" }
        ] 
    },
    
    {
        "name" : "Morphology",
        "name_abbrev" : "morph",
        "negative_label": "Not applicable",
        "exclusive": true,
        "color": "green",
        "labels": [
            { "label" : "Adjective", "label_abbrev": "ADJ", "color": "green", "hotkey": "a" },
            { "label" : "Adposition", "label_abbrev": "ADP", "color": "green", "hotkey": "b" },
            { "label" : "Adverb", "label_abbrev": "ADV", "color": "green", "hotkey": "c" },
            { "label" : "Article", "label_abbrev": "ART", "color": "green", "hotkey": "d" },
            { "label" : "Auxiliary", "label_abbrev": "AUX", "color": "green", "hotkey": "e" },
            { "label" : "Classifier", "label_abbrev": "CLF", "color": "green", "hotkey": "f" },
            { "label" : "Complementizer", "label_abbrev": "COMP", "color": "green", "hotkey": "g" },
            { "label" : "Conjunction", "label_abbrev": "CONJ", "color": "green", "hotkey": "h" },
            { "label" : "Determiner", "label_abbrev": "DET", "color": "green", "hotkey": "i" },
            { "label" : "Interjection", "label_abbrev": "INTJ", "color": "green", "hotkey": "j" },
            { "label" : "Noun", "label_abbrev": "N", "color": "green", "hotkey": "k" },
            { "label" : "Numeral", "label_abbrev": "NUM", "color": "green", "hotkey": "l" },
            { "label" : "Particle", "label_abbrev": "PART", "color": "green", "hotkey": "m" },
            { "label" : "Pronoun", "label_abbrev": "PRO", "color": "green", "hotkey": "n" },
            { "label" : "Propername", "label_abbrev": "PROPN", "color": "green", "hotkey": "o" },
            { "label" : "Verb", "label_abbrev": "V", "color": "green", "hotkey": "p" },
            { "label" : "Determiner/Adposition", "label_abbrev": "DETADP", "color": "green", "hotkey": "q" },
            { "label" : "Complementizer/Pronoun", "label_abbrev": "COMPPRO", "color": "green", "hotkey": "r" },
            { "label" : "Auxiliary/Complementarizer", "label_abbrev": "AUXCOMP", "color": "green", "hotkey": "s" },
            { "label" : "Pronoun/Adposition", "label_abbrev": "PROADP", "color": "green", "hotkey": "t" },
            { "label" : "Unknown", "label_abbrev": "UNK", "color":"red", "hotkey": "u" }
        ] 
    },
    
    {
        "name": "Entity Linking",
        "name_abbrev": "edl",
        "exclusive": false,
        "labels":[],
        "labels_from": "edl",
        "color": "blue"
    },

    {
        "name" : "Situation Frames",
        "name_abbrev" : "sf",
        "negative_label": "Not a situation frame",
        "exclusive": false,
        "color": "sf",
        "labels": [
            { "label" : "Medicine", "label_abbrev": "med", "color": "sf" },
            { "label" : "Food", "label_abbrev": "food", "color": "sf" },
            { "label" : "Water", "label_abbrev": "water", "color": "sf" },
            { "label" : "Shelter", "label_abbrev": "shelter", "color": "sf" },
            { "label" : "Evacuation", "label_abbrev": "evac", "color": "sf" },
            { "label" : "Infrastructure", "label_abbrev": "infra", "color": "sf" },
            { "label" : "Utilities/Energy/Sanitation", "label_abbrev": "util", "color": "sf" },
            { "label" : "Search and Rescue", "label_abbrev": "search", "color": "sf" },
            { "label" : "Terrorism/Extreme Violence", "label_abbrev": "terror", "color": "sf" },
            { "label" : "Unrest/Widespread Crime", "label_abbrev": "unrest", "color": "sf" },
            { "label" : "Regime Change", "label_abbrev": "regimechange", "color": "sf" }
        ]
    },
    
    {
        "name": "Situation Frame Need",
        "name_abbrev": "sf_need",
        "exclusive": true,
        "labels": [
            { "label": "Past only", "label_abbrev": "past", "color": "purple" },
            { "label": "Current", "label_abbrev": "current", "color": "purple" },
            { "label": "Future only", "label_abbrev": "future", "color": "purple"}
        ]
    },
    
    {
        "name": "Situation Frame Relief",
        "name_abbrev": "sf_relief",
        "exclusive": true,
        "labels": [
            { "label": "Sufficient", "label_abbrev": "sufficient", "color": "purple" },
            { "label": "Insufficient/Unknown sufficiency", "label_abbrev": "insufficient", "color": "purple" },
            { "label": "No relief known", "label_abbrev": "none", "color": "purple"}
        ]
    },
    
    {
        "name": "Situation Frame Urgency",
        "name_abbrev": "sf_urgency",
        "exclusive": true,
        "labels": [
            { "label": "Urgent", "label_abbrev": "urgent" },
            { "label": "Non-urgent", "label_abbrev": "nonurgent" }
        ]
    }
    
]     
