{
    "domain_annotator" : { 
        "role_name": "Domain Annotator",
        "task_name": "Domain Annotation",
        "task_desc": "Mark each sentence as in-domain (e.g., related to humanitarian needs, or civil unrest/regime change/terrorism",
        "modify_permissions": [ "domain" ],
        "view_permissions": [ "domain" ]
    },
    
    "ner_annotator" : { 
        "role_name": "NER Annotator",
        "task_name": "NER Annotation",
        "task_desc": "Mark all Persons, Organizations, Geopolitical Entities, and Locations in the following sentences.",
        "modify_permissions": [ "ner" ],
        "view_permissions": [ "ner" ]
    },

    "morph_annotator" : { 
        "role_name": "MORPH Annotator",
        "task_name": "MORPH Annotation",
        "task_desc": "Annotate morphology in the following sentences.",
        "modify_permissions": [ "morph" ],
        "view_permissions": [ "morph" ]
    },
    
    "edl_annotator" : { 
        "role_name": "EDL Annotator",
        "task_name": "EDL Annotation",
        "task_desc": "Link each Person, Organization, Geopolitical Entity, and Location in the following sentences to the correct entity IDs.",
        "modify_permissions": [ "edl" ],
        "view_permissions": [ "ner", "edl" ]
    },
    
    "ner_edl_annotator" : { 
        "role_name": "NER/EDL Annotator",
        "task_name": "NER/EDL Annotation",
        "task_desc": "Mark all Persons, Organizations, Geopolitical Entities, and Locations in the following sentences and link them to the correct entity IDs.",
        "modify_permissions": [ "ner", "edl" ],
        "view_permissions": [ "ner", "edl" ]
    },
        
    "sf_annotator" : { 
        "role_name": "SF Annotator",
        "task_name": "SF Annotation",    
        "task_desc": "Mark all needs and issues in the following sentences.",
        "modify_permissions": [ "sf", "sf_need", "sf_relief", "sf_urgency", "sf_location" ],
        "view_permissions": [ "ner", "edl", "sf", "sf_need", "sf_relief", "sf_urgency", "sf_location" ] },
        
        
    "sf_type_annotator" : { 
        "role_name": "SF Type Annotator",
        "task_name": "SF Type Annotation",    
        "task_desc": "Mark all needs and issues in the following sentences.",
        "modify_permissions": [ "sf" ],
        "view_permissions": [ "sf" ] },
        
    "translator" : { 
        "role_name": "Translator",
        "task_name": "Translation",   
        "task_desc": "Translate as many words and phrases in this document as you can.",
        "modify_permissions": [ "translate" ],
        "view_permissions": [ "translate" ] },  


    "translator_ner" : { 
        "role_name": "Translator/NER",
        "task_name": "Translation/NER",   
        "task_desc": "Translate as many words and phrases in this document as you can, and mark all Persons, Organizations, Geopolitical Entities, and Locations.",
        "modify_permissions": [ "translate", "ner" ],
        "view_permissions": [ "translate", "ner" ] },  
        
    "full_annotator" : { 
        "role_name": "Full Annotator",
        "task_name": "Full Annotation",
        "task_desc": "Add as many named entity annotations, need and issue annotations, and translations as you can.",
        "modify_permissions": [ "domain", "translate", "ner", "sf", "sf_need", "sf_relief", "sf_urgency", "sf_location" ],
        "view_permissions": [ "domain", "translate", "ner", "sf", "sf_need", "sf_relief", "sf_urgency", "sf_location" ] },
        
     "viewer" : { 
        "role_name": "Viewer",
        "task_name": "Browsing",
        "task_desc": "",
        "modify_permissions": [],
        "view_permissions": ["domain", "ner", "morph", "sf", "sf_need", "sf_relief", "sf_urgency", "sf_location" ] }
        
}
