[

    { "lang": "tir",
      "view_id": "ipa",
      "ip": "127.0.0.1",
      "port": "5998" },     

    { "lang": "tir",
      "view_id": "natural",
      "ip": "127.0.0.1",
      "port": "5997" },
      
    { "lang": "orm",
      "view_id": "ipa",
      "ip": "127.0.0.1",
      "port": "5996" },     

    { "lang": "orm",
      "view_id": "natural",
      "ip": "127.0.0.1",
      "port": "5995" }

]