[
    { "lang": "sin",
      "view_id": "ipa",
      "ip": "127.0.0.1",
      "port": "7118" },

    { "lang": "sin",
      "view_id": "natural",
      "ip": "127.0.0.1",
      "port": "7120" },

    { "lang": "sin",
      "view_id": "roman",
      "ip": "127.0.0.1",
      "port": "7119" }
]
